25
819.905517578125,428.171844482422
285.130920410156,109.108787536621
117.53547668457,526.64404296875
735.512390136719,81.7270355224609
356.346069335938,92.841667175293
785.592590332031,82.1256256103516
30.0204849243164,19.4409599304199
163.401107788086,20.648286819458
174.746917724609,218.726196289063
782.495422363281,330.944122314453
385.394897460938,103.478744506836
865.620849609375,399.688415527344
142.13818359375,388.044891357422
475.428833007813,260.401336669922
445.914306640625,22.9013595581055
332.741333007813,331.081726074219
798.85888671875,542.120422363281
765.339294433594,452.827850341797
657.804016113281,217.807312011719
331.724731445313,424.093841552734
639.50146484375,200.858474731445
610.213134765625,379.956481933594
615.871337890625,525.38427734375
125.297668457031,248.775695800781
811.745910644531,227.495391845703
