50
217.353164672852,341.027618408203
331.674377441406,148.202896118164
712.052368164063,471.071746826172
543.5546875,281.596984863281
191.011535644531,31.129301071167
80.7873458862305,438.950134277344
356.561828613281,134.698577880859
684.934326171875,244.667282104492
821.970581054688,401.642852783203
702.473876953125,442.273803710938
735.805786132813,312.721466064453
827.851501464844,365.687683105469
255.074340820313,451.899047851563
939.753723144531,94.9043960571289
290.913238525391,173.162689208984
767.416625976563,199.709625244141
793.659973144531,69.735954284668
872.85009765625,524.105346679688
192.213989257813,332.286407470703
471.777374267578,336.7607421875
706.772399902344,505.401794433594
418.607482910156,159.345397949219
73.4212646484375,508.636505126953
306.198791503906,319.825988769531
846.1123046875,59.9875869750977
611.438659667969,436.147827148438
92.6405715942383,217.287216186523
673.60546875,356.82275390625
792.19873046875,366.733215332031
14.3854665756226,489.729766845703
916.740356445313,204.050704956055
221.081253051758,481.893646240234
289.182067871094,394.723419189453
4.43116521835327,126.373062133789
372.056365966797,402.608520507813
252.635620117188,119.797424316406
258.482360839844,49.5999183654785
97.3618240356445,449.291381835938
149.977020263672,295.972930908203
591.465454101563,181.654388427734
515.435791015625,197.03857421875
326.441131591797,100.014701843262
703.402587890625,535.931335449219
270.467834472656,219.225769042969
453.187194824219,123.244804382324
160.720123291016,288.984466552734
589.771606445313,319.747802734375
695.551879882813,184.674102783203
697.831115722656,298.340454101563
0.536811530590057,195.658279418945
